{
  "name": "NovaScotiaClosing",
  "description": "Blank Process",
  "main": "Main.xaml",
  "dependencies": {
    "EcoCDS": "[2.2.4]",
    "EcoHelpers": "[2.0.6]",
    "EcoObjects": "[5.2.2]",
    "UiPath.Excel.Activities": "[2.12.3]",
    "UiPath.Mail.Activities": "[1.15.2]",
    "UiPath.System.Activities": "[22.4.1]",
    "UiPath.UIAutomation.Activities": "[22.4.6]",
    "UiPath.WebAPI.Activities": "[1.11.1]",
    "UiPath.Word.Activities": "[1.10.1]"
  },
  "webServices": [],
  "entitiesStores": [],
  "schemaVersion": "4.0",
  "studioVersion": "19.10.4.0",
  "projectVersion": "1.0.49",
  "runtimeOptions": {
    "autoDispose": false,
    "isPausable": true,
    "requiresUserInteraction": true,
    "supportsPersistence": false,
    "excludedLoggedData": [
      "Private:*",
      "*password*"
    ],
    "executionType": "Workflow",
    "readyForPiP": false,
    "startsInPiP": false
  },
  "designOptions": {
    "projectProfile": "Developement",
    "outputType": "Process",
    "libraryOptions": {
      "includeOriginalXaml": false,
      "privateWorkflows": []
    },
    "processOptions": {
      "ignoredFiles": []
    },
    "fileInfoCollection": [],
    "modernBehavior": false
  },
  "arguments": {
    "input": [],
    "output": []
  },
  "expressionLanguage": "VisualBasic",
  "entryPoints": [
    {
      "filePath": "Main.xaml",
      "uniqueId": "75134005-c7d4-4a95-8aba-2193f0017a5b",
      "input": [],
      "output": []
    }
  ],
  "isTemplate": false,
  "templateProjectData": {},
  "publishData": {},
  "targetFramework": "Legacy"
}